<!DOCTYPE svg PUBLIC "-//W3C//DTD SVG 20010904//EN" "http://www.w3.org/TR/2001/REC-SVG-20010904/DTD/svg10.dtd">
<svg version="1.0" xmlns="http://www.w3.org/2000/svg" width="128px" height="195px" viewBox="0 0 1280 1950" preserveAspectRatio="xMidYMid meet">
<g id="layer101" fill="#121212" stroke="none">
 <path d="M0 975 l0 -975 640 0 640 0 0 975 0 975 -640 0 -640 0 0 -975z"/>
 </g>
<g id="layer102" fill="#1e2123" stroke="none">
 <path d="M0 975 l0 -975 640 0 640 0 0 975 0 975 -640 0 -640 0 0 -975z m808 889 c42 -8 106 -28 141 -45 35 -16 69 -29 77 -29 8 0 14 -6 14 -13 0 -8 18 -28 40 -46 71 -57 106 -138 151 -355 16 -75 19 -116 14 -165 -9 -90 -30 -185 -55 -251 -22 -60 -21 -50 15 90 36 140 34 241 -9 414 -49 195 -85 247 -223 325 -128 72 -290 91 -482 57 -284 -51 -420 -210 -438 -512 -6 -110 4 -177 57 -359 26 -88 50 -244 50 -321 0 -53 -10 -17 -15 57 -9 112 -23 189 -45 255 -80 229 -80 461 -1 639 24 53 99 135 161 175 27 18 47 36 44 41 -3 6 5 7 22 3 23 -6 26 -4 21 10 -5 13 -2 15 16 11 12 -3 67 4 122 14 125 24 224 25 323 5z m189 -41 c-4 -3 -10 -3 -14 0 -3 4 0 7 7 7 7 0 10 -3 7 -7z m-730 -10 c-4 -3 -10 -3 -14 0 -3 4 0 7 7 7 7 0 10 -3 7 -7z m151 -893 c73 -44 78 -136 12 -202 -47 -47 -92 -51 -156 -13 -49 29 -64 51 -64 93 0 111 115 179 208 122z m732 -75 c-12 -25 -45 -70 -72 -98 l-50 -52 42 50 c23 28 54 73 68 102 14 29 28 51 30 48 2 -2 -6 -25 -18 -50z m-240 -27 c36 -18 48 -32 59 -63 13 -37 12 -45 -7 -88 -29 -66 -70 -89 -146 -84 -67 4 -88 22 -106 87 -17 64 13 118 85 151 52 24 62 24 115 -3z m117 -175 c-3 -10 -5 -4 -5 12 0 17 2 24 5 18 2 -7 2 -21 0 -30z m-908 -24 c-21 -72 -62 -288 -69 -369 l-7 -85 -1 70 c-1 39 3 88 8 110 5 22 17 81 25 130 16 89 44 190 51 182 2 -2 -1 -19 -7 -38z m883 -54 c-11 -14 -24 -44 -27 -67 -12 -66 -42 -152 -107 -298 -59 -134 -81 -170 -102 -170 -6 0 -3 5 7 11 32 19 157 312 183 426 14 66 50 138 63 127 2 -2 -6 -15 -17 -29z m-529 -139 c26 -9 72 -16 101 -16 51 0 54 -1 48 -22 -3 -12 -7 -17 -10 -10 -2 6 -17 12 -34 12 -16 0 -64 12 -106 26 -43 15 -78 22 -79 17 -7 -20 -59 -92 -130 -180 -76 -94 -120 -124 -176 -122 -26 1 -28 2 -7 6 63 10 101 38 173 125 69 86 94 120 131 181 15 25 19 27 29 14 7 -9 34 -22 60 -31z m233 -306 c29 -54 30 -60 9 -35 -27 33 -80 169 -90 231 -3 21 6 1 20 -46 14 -47 42 -114 61 -150z"/>
 <path d="M278 897 c-34 -29 -48 -58 -48 -101 0 -41 30 -69 93 -88 34 -10 44 -9 75 8 40 22 67 80 57 126 -16 70 -120 103 -177 55z m80 -84 c-2 -10 -10 -18 -18 -18 -8 0 -16 8 -18 18 -2 12 3 17 18 17 15 0 20 -5 18 -17z"/>
 <path d="M784 795 c-67 -40 -80 -109 -33 -170 18 -21 28 -25 75 -25 47 0 59 4 89 33 66 60 56 141 -20 173 -47 19 -64 18 -111 -11z m71 -95 c0 -22 -29 -18 -33 3 -3 14 1 18 15 15 10 -2 18 -10 18 -18z"/>
 </g>
<g id="layer103" fill="#2e2f2f" stroke="none">
 <path d="M0 975 l0 -975 640 0 640 0 0 975 0 975 -640 0 -640 0 0 -975z m835 885 c44 -10 103 -30 130 -44 28 -14 55 -26 62 -26 6 0 15 -9 18 -21 4 -11 18 -25 31 -31 14 -7 42 -37 62 -68 31 -46 45 -84 76 -214 34 -140 38 -168 33 -240 -14 -202 -108 -446 -193 -500 l-29 -19 32 34 c53 58 91 128 122 228 64 206 66 307 12 513 -54 205 -94 258 -251 332 -49 23 -108 40 -172 51 -88 14 -106 14 -205 0 -131 -19 -193 -36 -257 -70 -118 -63 -184 -145 -224 -281 -22 -76 -26 -106 -24 -206 2 -116 22 -229 57 -328 21 -59 45 -219 44 -295 -1 -55 -2 -58 -13 -33 -11 27 -12 25 -29 -40 -9 -37 -23 -103 -32 -147 -8 -44 -19 -98 -25 -120 -5 -22 -10 -71 -10 -109 0 -38 -2 -67 -5 -64 -11 10 -7 153 4 195 6 22 20 89 30 148 11 58 29 125 40 149 12 23 21 61 21 83 0 52 -24 174 -45 233 -37 104 -55 211 -55 333 -1 105 3 135 28 218 33 112 73 169 169 245 59 47 61 49 45 68 -17 18 -16 18 16 2 39 -20 57 -13 41 15 -10 20 -10 20 15 4 16 -11 33 -14 48 -9 52 17 257 42 303 37 28 -3 86 -13 130 -23z m196 -20 c-13 -11 -31 -20 -40 -20 -9 0 0 8 19 19 46 24 50 24 21 1z m-771 -23 c13 -5 13 -6 -1 -6 -8 -1 -24 6 -35 15 -19 15 -19 15 1 6 11 -5 27 -12 35 -15z m817 -23 c-3 -3 -12 -4 -19 -1 -8 3 -5 6 6 6 11 1 17 -2 13 -5z m-692 -854 c27 0 84 -61 91 -96 9 -50 -20 -121 -60 -145 -56 -34 -119 -23 -183 35 -28 23 -31 91 -8 136 25 47 92 85 133 74 8 -2 20 -4 27 -4z m516 -114 c44 -18 67 -44 75 -83 9 -45 -12 -97 -52 -133 -30 -26 -42 -30 -93 -30 -71 0 -102 21 -120 80 -15 52 -7 91 27 126 51 51 105 64 163 40z m106 -260 c-14 -28 -33 -80 -42 -116 -38 -145 -164 -420 -192 -420 -44 0 -126 160 -153 298 l-13 62 -36 0 c-20 1 -61 10 -91 21 -79 29 -80 28 -109 -18 -38 -60 -168 -219 -194 -236 -39 -25 -86 -37 -110 -27 -20 8 -20 9 7 9 56 2 108 39 181 128 63 78 127 168 139 197 3 8 7 8 13 -1 16 -22 113 -53 167 -53 47 0 53 -2 50 -17 -6 -23 40 -181 71 -247 14 -28 36 -64 49 -81 22 -26 26 -28 39 -15 26 28 149 324 169 410 12 47 29 94 40 106 10 12 22 45 26 75 7 51 7 52 10 15 2 -25 -5 -55 -21 -90z"/>
 <path d="M288 903 c-16 -10 -35 -32 -43 -49 -30 -64 -15 -106 48 -135 60 -27 84 -24 123 15 29 29 34 41 34 79 0 63 -30 97 -90 103 -32 3 -53 -1 -72 -13z m70 -90 c-2 -10 -10 -18 -18 -18 -8 0 -16 8 -18 18 -2 12 3 17 18 17 15 0 20 -5 18 -17z"/>
 <path d="M824 813 c-12 -2 -39 -19 -59 -36 -30 -26 -37 -39 -37 -67 0 -83 35 -115 114 -108 58 6 93 34 109 88 9 30 8 43 -5 69 -21 39 -75 63 -122 54z m31 -113 c0 -22 -29 -18 -33 3 -3 14 1 18 15 15 10 -2 18 -10 18 -18z"/>
 </g>
<g id="layer104" fill="#353c45" stroke="none">
 <path d="M0 975 l0 -975 640 0 640 0 0 975 0 975 -640 0 -640 0 0 -975z m367 873 c10 -2 32 -1 48 3 74 19 252 39 294 34 97 -13 188 -37 251 -65 56 -25 71 -28 105 -20 22 5 41 7 44 5 2 -3 -10 -8 -28 -11 -41 -8 -45 -17 -20 -40 100 -92 106 -104 155 -295 33 -133 36 -152 31 -244 -4 -72 -16 -134 -41 -223 -40 -136 -68 -192 -133 -260 -36 -39 -43 -53 -43 -87 0 -23 -9 -55 -21 -75 -12 -19 -30 -69 -40 -110 -16 -71 -86 -246 -147 -370 -34 -69 -59 -76 -96 -28 -37 50 -72 131 -99 233 l-24 90 -49 6 c-27 4 -72 16 -101 27 l-52 21 -25 -42 c-14 -23 -61 -85 -103 -137 -85 -103 -150 -148 -198 -136 -14 4 -25 11 -25 16 0 5 7 7 15 3 9 -3 36 2 61 12 36 14 62 37 130 119 47 55 97 122 111 149 26 46 38 57 45 37 5 -17 116 -50 167 -50 39 0 49 -3 45 -14 -19 -50 108 -356 148 -356 20 0 150 305 180 423 11 45 28 91 38 102 11 11 22 44 26 75 5 40 14 63 34 85 80 88 136 219 165 384 23 127 19 188 -20 343 -41 161 -60 204 -120 263 -76 77 -169 114 -370 149 -16 3 -77 -2 -135 -10 -287 -40 -416 -131 -482 -339 -29 -91 -31 -111 -30 -218 2 -114 27 -252 63 -344 28 -73 52 -342 29 -328 -5 3 -10 16 -11 28 -2 63 -80 -308 -89 -418 l-6 -80 -8 50 c-6 33 -5 69 3 105 6 30 21 105 32 165 11 61 32 139 46 174 25 63 26 67 14 158 -7 52 -24 126 -37 166 -44 128 -57 206 -58 332 0 103 4 133 28 210 33 108 81 183 153 237 29 22 53 42 53 44 0 2 -13 10 -30 19 -16 9 -30 21 -30 27 0 7 6 6 18 -3 50 -40 89 -45 55 -6 -17 19 -17 20 4 8 32 -16 56 -14 49 5 -3 9 -9 28 -12 42 -4 24 -3 24 10 -5 8 -17 23 -33 33 -35z m703 22 c0 -13 -60 -50 -80 -50 -8 1 2 10 22 20 20 11 40 24 43 30 8 13 15 13 15 0z m-115 -10 c-3 -5 -12 -10 -18 -10 -7 0 -6 4 3 10 19 12 23 12 15 0z m-568 -920 c7 0 28 -14 47 -31 89 -78 34 -229 -83 -229 -59 0 -126 41 -141 85 -28 86 61 197 145 180 11 -3 25 -5 32 -5z m517 -114 c72 -30 95 -100 56 -176 -22 -43 -54 -64 -114 -73 -74 -12 -130 31 -143 107 -8 52 13 94 66 127 50 32 85 36 135 15z"/>
 <path d="M276 889 c-62 -54 -58 -132 7 -163 71 -33 93 -32 132 7 29 29 35 42 35 79 -1 98 -100 142 -174 77z m84 -74 c0 -21 -30 -31 -40 -14 -11 17 -3 29 21 29 10 0 19 -7 19 -15z"/>
 <path d="M783 790 c-17 -10 -37 -28 -42 -39 -24 -43 -3 -130 34 -145 95 -36 205 55 174 144 -20 57 -105 78 -166 40z m72 -90 c0 -22 -29 -18 -33 3 -3 14 1 18 15 15 10 -2 18 -10 18 -18z"/>
 </g>
<g id="layer105" fill="#40413f" stroke="none">
 <path d="M0 975 l0 -975 640 0 640 0 0 975 0 975 -640 0 -640 0 0 -975z m367 873 c10 -2 32 -1 48 3 74 19 252 39 294 34 97 -13 188 -37 251 -65 56 -25 71 -28 105 -20 22 5 41 7 44 5 2 -3 -10 -8 -28 -11 -41 -8 -45 -17 -20 -40 100 -92 106 -104 155 -295 33 -133 36 -152 31 -244 -4 -72 -16 -134 -41 -223 -40 -136 -68 -192 -133 -260 -36 -39 -43 -53 -43 -87 0 -23 -9 -55 -21 -75 -12 -19 -30 -69 -40 -110 -16 -71 -86 -246 -147 -370 -34 -69 -59 -76 -96 -28 -37 50 -72 131 -99 233 l-24 90 -49 6 c-27 4 -72 16 -101 27 l-52 21 -25 -42 c-14 -23 -61 -85 -103 -137 -85 -103 -150 -148 -198 -136 -14 4 -25 11 -25 16 0 5 7 7 15 3 9 -3 36 2 61 12 36 14 62 37 130 119 47 55 97 122 111 149 26 46 38 57 45 37 6 -17 116 -50 168 -50 29 0 49 -4 45 -9 -24 -39 107 -361 147 -361 20 0 150 305 180 423 11 45 28 91 38 102 11 11 22 44 26 75 5 40 14 63 34 85 103 113 180 340 180 527 0 70 -60 318 -91 379 -50 99 -163 174 -315 210 -100 23 -168 26 -279 10 -128 -18 -234 -56 -298 -107 -92 -72 -130 -127 -162 -240 -45 -158 -34 -341 30 -523 35 -100 62 -373 35 -356 -5 3 -10 16 -11 28 -1 32 -26 -63 -44 -168 -9 -49 -21 -106 -27 -125 -6 -19 -14 -73 -18 -120 l-6 -85 -9 50 c-5 33 -4 69 4 105 6 30 21 105 32 165 11 61 32 139 46 174 25 63 26 67 14 158 -7 52 -24 126 -37 166 -44 128 -57 206 -58 332 0 103 4 133 28 210 33 108 81 183 153 237 29 22 53 42 53 44 0 2 -13 10 -30 19 -16 9 -30 21 -30 27 0 7 6 6 18 -3 50 -40 89 -45 55 -6 -17 19 -17 20 4 8 32 -16 56 -14 49 5 -3 9 -9 28 -12 42 -4 24 -3 24 10 -5 8 -17 23 -33 33 -35z m703 22 c0 -13 -60 -50 -80 -50 -8 1 2 10 22 20 20 11 40 24 43 30 8 13 15 13 15 0z m-115 -10 c-3 -5 -12 -10 -18 -10 -7 0 -6 4 3 10 19 12 23 12 15 0z m-568 -920 c7 0 28 -14 47 -31 90 -78 34 -229 -84 -229 -55 0 -123 38 -140 79 -34 84 59 203 145 185 11 -2 25 -4 32 -4z m517 -114 c72 -30 95 -100 56 -176 -22 -43 -54 -64 -114 -73 -74 -12 -130 31 -143 107 -8 52 13 94 66 127 50 32 85 36 135 15z"/>
 <path d="M276 890 c-61 -54 -57 -133 7 -164 71 -33 93 -32 132 7 29 29 35 42 35 79 -1 97 -100 142 -174 78z m84 -75 c0 -21 -30 -31 -40 -14 -11 17 -3 29 21 29 10 0 19 -7 19 -15z"/>
 <path d="M783 790 c-17 -10 -37 -28 -42 -39 -24 -43 -3 -130 34 -145 95 -36 205 55 174 144 -20 57 -105 78 -166 40z m72 -90 c0 -22 -29 -18 -33 3 -3 14 1 18 15 15 10 -2 18 -10 18 -18z"/>
 </g>
<g id="layer106" fill="#3d4650" stroke="none">
 <path d="M0 975 l0 -975 640 0 640 0 0 975 0 975 -640 0 -640 0 0 -975z m367 874 c10 -1 23 0 28 1 91 21 261 40 315 34 83 -7 185 -31 223 -50 26 -14 32 -14 65 2 21 9 47 26 60 37 12 11 22 16 22 10 0 -15 -31 -40 -70 -57 -35 -15 -35 -15 -10 -24 14 -5 40 -5 63 0 22 5 42 6 45 3 3 -2 -9 -8 -27 -11 -46 -9 -46 -19 -1 -55 69 -55 96 -110 135 -271 39 -163 43 -230 20 -359 -29 -168 -86 -300 -165 -384 -31 -33 -39 -49 -42 -93 -3 -29 -12 -60 -20 -70 -9 -9 -25 -53 -36 -97 -20 -81 -85 -245 -145 -365 -40 -81 -61 -88 -105 -33 -38 49 -78 143 -101 241 l-18 77 -54 7 c-30 4 -76 16 -102 27 l-47 20 -19 -37 c-11 -20 -59 -84 -107 -141 -89 -106 -146 -146 -196 -139 -35 5 -31 23 6 25 19 1 48 9 65 17 34 18 191 208 222 269 11 21 23 37 27 35 68 -36 117 -53 167 -56 l60 -4 2 -39 c4 -72 74 -247 123 -309 20 -24 21 -24 35 -6 26 35 144 324 165 407 12 45 29 93 40 108 10 14 21 48 25 76 5 37 16 60 46 94 84 94 151 287 165 468 6 80 3 101 -31 238 -40 163 -65 216 -128 275 -84 79 -252 140 -385 142 -159 2 -348 -50 -435 -118 -92 -72 -130 -127 -162 -240 -24 -85 -28 -115 -26 -211 1 -112 11 -169 56 -313 29 -96 48 -229 43 -305 -4 -48 -6 -55 -13 -36 -8 23 -9 22 -22 -20 -7 -24 -20 -84 -29 -134 -8 -49 -22 -114 -30 -144 -8 -30 -14 -85 -15 -121 0 -72 -17 -58 -18 15 -1 58 65 374 90 432 19 45 20 54 9 138 -7 50 -23 121 -36 158 -44 129 -67 270 -61 376 6 99 35 217 69 284 20 41 94 120 143 154 l30 22 -25 9 c-24 9 -60 42 -46 42 3 0 20 -9 38 -20 38 -23 74 -28 46 -6 -24 18 -23 29 1 16 30 -16 54 -13 47 6 -3 9 -9 28 -12 42 -4 23 -3 23 10 -5 8 -18 23 -34 33 -34z m593 16 c-7 -8 -16 -15 -21 -15 -5 0 -1 9 8 20 9 11 19 17 21 15 3 -3 -1 -11 -8 -20z m-553 -936 c70 -34 92 -106 55 -178 -39 -77 -114 -95 -196 -47 -51 29 -71 70 -62 121 12 61 82 123 140 125 11 0 39 -9 63 -21z m512 -108 c46 -24 66 -65 58 -122 -7 -53 -29 -85 -77 -109 -73 -37 -153 -17 -183 46 -35 72 -14 136 55 178 51 31 96 33 147 7z"/>
 <path d="M301 908 c-32 -17 -59 -56 -67 -95 -5 -27 -1 -37 23 -62 43 -42 98 -56 137 -33 38 22 56 55 56 103 0 66 -89 119 -149 87z m57 -91 c4 -22 -27 -35 -38 -16 -10 15 7 42 24 36 6 -2 12 -11 14 -20z"/>
 <path d="M777 785 c-41 -28 -52 -58 -43 -110 9 -46 41 -75 83 -75 79 0 133 50 133 122 -1 81 -95 115 -173 63z m81 -82 c-5 -26 -38 -29 -38 -4 0 15 6 21 21 21 14 0 19 -5 17 -17z"/>
 </g>
<g id="layer107" fill="#4f5050" stroke="none">
 <path d="M0 975 l0 -975 640 0 640 0 0 975 0 975 -640 0 -640 0 0 -975z m367 874 c10 -1 23 0 28 1 91 21 261 40 315 34 83 -7 185 -31 223 -50 26 -14 32 -14 65 2 21 9 47 26 60 37 12 11 22 16 22 10 0 -15 -31 -40 -70 -57 -35 -15 -35 -15 -10 -24 14 -5 40 -5 63 0 22 5 42 6 45 3 3 -2 -9 -8 -27 -11 -46 -9 -46 -19 -1 -55 69 -55 96 -110 135 -271 39 -163 43 -230 20 -359 -29 -168 -86 -300 -165 -384 -31 -33 -39 -49 -42 -93 -3 -29 -12 -60 -20 -70 -9 -9 -25 -53 -36 -97 -20 -81 -85 -245 -145 -365 -40 -81 -61 -88 -105 -33 -38 49 -78 143 -101 241 l-18 77 -57 7 c-31 4 -77 16 -101 27 l-45 20 -19 -37 c-11 -20 -59 -84 -107 -141 -89 -106 -146 -146 -196 -139 -35 5 -31 23 6 25 19 1 48 9 65 17 34 18 191 208 222 269 11 21 23 37 27 35 68 -36 117 -52 167 -56 l60 -4 2 -35 c4 -70 76 -254 123 -313 20 -24 21 -24 35 -6 26 35 144 324 165 407 12 45 29 93 40 108 10 14 21 48 25 76 5 37 16 60 46 94 84 94 151 287 165 468 6 80 3 101 -31 238 -20 83 -48 169 -62 193 -81 141 -294 233 -508 219 -194 -13 -319 -56 -418 -146 -64 -57 -94 -111 -122 -217 -43 -162 -33 -332 34 -525 23 -69 44 -228 39 -299 -3 -46 -5 -52 -13 -33 -9 20 -13 12 -28 -55 -52 -233 -67 -313 -68 -367 0 -68 -17 -50 -18 20 -1 58 65 374 90 432 19 45 20 54 9 138 -7 50 -23 121 -36 158 -44 129 -67 270 -61 376 6 99 35 217 69 284 20 41 94 120 143 154 l30 22 -25 9 c-24 9 -60 42 -46 42 3 0 20 -9 38 -20 38 -23 74 -28 46 -6 -24 18 -23 29 1 16 30 -16 54 -13 47 6 -3 9 -9 28 -12 42 -4 23 -3 23 10 -5 8 -18 23 -34 33 -34z m593 16 c-7 -8 -16 -15 -21 -15 -5 0 -1 9 8 20 9 11 19 17 21 15 3 -3 -1 -11 -8 -20z m-553 -936 c48 -23 73 -61 73 -111 0 -43 -28 -96 -63 -122 -74 -54 -218 16 -217 106 1 49 36 104 81 126 55 27 72 27 126 1z m512 -108 c46 -24 66 -65 58 -122 -7 -53 -29 -85 -77 -109 -73 -37 -153 -17 -183 46 -35 72 -14 136 55 178 51 31 96 33 147 7z"/>
 <path d="M301 908 c-32 -17 -59 -56 -67 -95 -5 -27 -1 -37 23 -62 43 -42 98 -56 137 -33 38 22 56 55 56 103 0 66 -89 119 -149 87z m57 -91 c4 -22 -27 -35 -38 -16 -10 15 7 42 24 36 6 -2 12 -11 14 -20z"/>
 <path d="M777 785 c-41 -28 -52 -58 -43 -110 9 -46 41 -75 83 -75 79 0 133 50 133 122 -1 81 -95 115 -173 63z m81 -82 c-5 -26 -38 -29 -38 -4 0 15 6 21 21 21 14 0 19 -5 17 -17z"/>
 </g>
<g id="layer108" fill="#59616a" stroke="none">
 <path d="M0 975 l0 -975 640 0 640 0 0 975 0 975 -640 0 -640 0 0 -975z m393 878 c23 3 92 13 152 22 117 17 170 15 299 -12 l79 -17 23 28 c16 18 24 22 24 12 0 -8 -9 -21 -20 -29 -18 -13 -19 -16 -5 -27 12 -10 22 -9 52 5 21 10 48 27 61 38 12 11 22 16 22 10 0 -15 -58 -63 -76 -63 -8 0 -14 -5 -14 -11 0 -8 19 -10 60 -6 35 3 58 1 54 -4 -3 -5 -14 -9 -24 -9 -36 0 -31 -21 18 -68 65 -64 75 -83 118 -253 33 -133 36 -152 31 -249 -6 -118 -42 -270 -86 -365 -15 -33 -51 -85 -79 -116 -46 -51 -52 -62 -52 -102 0 -28 -7 -53 -18 -68 -11 -13 -27 -55 -36 -94 -21 -85 -82 -240 -139 -355 -51 -102 -69 -110 -116 -53 -36 44 -86 167 -104 256 l-13 62 -54 6 c-30 3 -72 14 -94 23 -52 22 -62 20 -75 -11 -14 -34 -176 -229 -212 -255 -35 -26 -101 -35 -117 -15 -7 8 -15 43 -18 78 -7 76 43 346 83 446 23 60 24 66 12 145 -6 46 -24 124 -40 173 -69 221 -76 388 -24 555 36 112 87 180 195 258 2 2 -10 14 -28 28 -18 14 -32 30 -32 36 0 6 8 4 18 -5 9 -8 29 -20 45 -26 l27 -11 -16 25 c-18 28 -9 32 20 10 28 -21 50 -19 41 3 -4 9 -9 28 -11 42 -3 20 -1 19 11 -9 15 -32 18 -33 58 -28z"/>
 <path d="M518 1845 c-170 -29 -274 -83 -358 -187 -62 -77 -100 -216 -100 -366 0 -98 26 -238 61 -329 19 -49 39 -186 39 -264 0 -67 -2 -77 -19 -82 -14 -3 -22 -20 -31 -63 -6 -33 -23 -109 -36 -171 -15 -66 -24 -136 -23 -172 l2 -61 34 0 c19 0 46 6 61 14 27 14 170 180 205 239 9 15 24 38 32 52 15 24 16 24 35 5 24 -24 110 -50 168 -50 35 0 43 -3 38 -15 -8 -21 38 -175 75 -249 38 -79 65 -114 78 -101 32 33 181 415 181 464 0 10 10 31 22 46 13 16 25 51 29 83 5 37 16 63 32 81 104 112 180 329 181 521 1 77 -6 119 -32 220 -18 69 -42 144 -53 166 -48 100 -181 186 -337 217 -96 20 -176 20 -284 2z m-111 -912 c102 -48 95 -195 -11 -247 -44 -21 -87 -14 -147 27 -74 50 -58 167 30 214 52 27 81 29 128 6z m513 -111 c118 -59 51 -252 -88 -252 -81 0 -132 53 -132 138 0 97 125 162 220 114z"/>
 <path d="M290 898 c-42 -28 -65 -85 -50 -123 19 -51 110 -82 161 -55 26 14 49 62 49 103 0 42 -42 85 -91 93 -25 4 -43 0 -69 -18z m68 -81 c4 -21 -25 -34 -40 -19 -8 8 -8 16 2 27 16 19 34 15 38 -8z"/>
 <path d="M778 785 c-42 -28 -53 -58 -44 -109 10 -51 37 -70 97 -67 81 3 119 41 119 115 0 74 -102 111 -172 61z m80 -82 c-5 -26 -38 -29 -38 -4 0 15 6 21 21 21 14 0 19 -5 17 -17z"/>
 <path d="M131 644 c0 -11 3 -14 6 -6 3 7 2 16 -1 19 -3 4 -6 -2 -5 -13z"/>
 </g>
<g id="layer109" fill="#5e6f81" stroke="none">
 <path d="M0 975 l0 -975 640 0 640 0 0 975 0 975 -640 0 -640 0 0 -975z m381 880 c19 1 88 9 154 19 127 19 185 17 314 -11 l75 -16 28 34 c32 38 39 25 7 -15 -11 -14 -17 -30 -14 -36 8 -13 35 -13 35 0 0 6 7 10 17 10 9 0 31 11 50 26 18 14 33 21 33 15 0 -14 -59 -61 -76 -61 -9 0 -12 -5 -8 -11 4 -8 25 -9 61 -5 36 4 52 3 48 -4 -3 -5 -15 -10 -25 -10 -37 0 -33 -23 9 -57 62 -52 89 -108 127 -260 50 -201 46 -316 -17 -518 -30 -98 -63 -160 -117 -217 -40 -43 -47 -57 -49 -96 -2 -26 -12 -59 -22 -73 -10 -14 -24 -52 -31 -85 -15 -73 -75 -228 -138 -354 -56 -112 -73 -122 -120 -64 -38 46 -87 166 -105 254 l-14 65 -61 7 c-33 4 -74 14 -91 22 -45 24 -53 20 -83 -32 -37 -62 -153 -201 -193 -230 -43 -31 -106 -40 -124 -18 -7 9 -15 44 -18 78 -6 75 45 349 82 442 22 55 23 65 13 145 -5 47 -23 127 -38 176 -55 176 -63 227 -57 354 4 87 12 137 32 201 32 100 66 152 140 217 l55 47 -30 24 c-16 13 -30 28 -30 34 0 6 8 4 18 -5 9 -8 29 -20 45 -26 l27 -11 -16 25 c-18 28 -9 32 20 10 32 -24 47 -19 36 11 -6 14 -10 35 -9 47 0 17 4 13 13 -13 11 -31 17 -35 47 -35z"/>
 <path d="M505 1841 c-148 -26 -224 -62 -307 -142 -63 -62 -87 -109 -118 -229 -25 -98 -27 -258 -4 -339 35 -126 47 -167 51 -181 17 -59 33 -179 33 -254 0 -75 -2 -87 -15 -82 -21 8 -29 -17 -49 -140 -9 -54 -23 -123 -31 -152 -9 -29 -15 -80 -14 -112 2 -59 3 -60 32 -60 55 0 94 30 179 135 46 57 95 124 110 149 28 46 28 46 47 27 25 -25 111 -51 166 -51 40 0 42 -1 43 -34 1 -37 41 -164 66 -211 9 -16 16 -33 16 -37 0 -3 12 -25 27 -47 26 -39 28 -41 43 -24 37 40 180 399 180 453 0 9 10 30 22 45 13 16 25 51 29 83 5 37 16 63 32 81 53 56 97 135 125 223 68 206 73 327 24 516 -42 159 -49 176 -107 240 -61 68 -168 123 -283 146 -102 20 -169 19 -297 -3z m-101 -905 c71 -29 97 -113 61 -190 -16 -34 -78 -76 -111 -76 -31 0 -120 46 -138 71 -38 55 -5 153 63 189 43 23 80 25 125 6z m511 -110 c44 -19 67 -56 67 -107 -1 -79 -58 -139 -140 -147 -88 -8 -142 42 -142 133 0 48 13 70 62 105 46 34 97 39 153 16z"/>
 <path d="M303 906 c-45 -20 -65 -56 -61 -107 3 -36 8 -47 37 -66 59 -40 128 -28 156 27 23 45 19 85 -12 120 -33 36 -76 45 -120 26z m55 -94 c3 -16 -2 -22 -17 -22 -26 0 -36 17 -20 36 16 19 33 13 37 -14z"/>
 <path d="M805 801 c-11 -5 -32 -21 -47 -36 -34 -34 -36 -76 -8 -122 18 -30 24 -33 69 -33 62 0 93 14 114 50 32 53 18 108 -33 135 -32 16 -64 18 -95 6z m53 -98 c-5 -26 -38 -29 -38 -4 0 15 6 21 21 21 14 0 19 -5 17 -17z"/>
 <path d="M130 640 c0 -7 3 -10 7 -7 3 4 3 10 0 14 -4 3 -7 0 -7 -7z"/>
 </g>
<g id="layer110" fill="#717170" stroke="none">
 <path d="M0 975 l0 -975 640 0 640 0 0 975 0 975 -640 0 -640 0 0 -975z m381 880 c19 1 88 9 154 19 127 19 185 17 314 -11 l75 -16 28 34 c32 38 39 25 7 -15 -11 -14 -17 -30 -14 -36 8 -13 35 -13 35 0 0 6 7 10 17 10 9 0 31 11 50 26 18 14 33 21 33 15 0 -14 -59 -61 -76 -61 -9 0 -12 -5 -8 -11 4 -8 25 -9 61 -5 36 4 52 3 48 -4 -3 -5 -15 -10 -25 -10 -37 0 -33 -23 9 -57 62 -52 89 -108 127 -260 50 -201 46 -316 -17 -518 -30 -98 -63 -160 -117 -217 -40 -43 -47 -57 -49 -96 -2 -26 -12 -59 -22 -73 -10 -14 -24 -52 -31 -85 -15 -73 -75 -228 -138 -354 -56 -112 -73 -122 -120 -64 -38 46 -87 166 -105 254 l-14 65 -61 7 c-33 4 -74 14 -91 22 -45 24 -53 20 -83 -32 -37 -62 -153 -201 -193 -230 -43 -31 -106 -40 -124 -18 -7 9 -15 44 -18 78 -6 75 45 349 82 442 22 55 23 65 13 145 -5 47 -23 127 -38 176 -55 176 -63 227 -57 354 4 87 12 137 32 201 32 100 66 152 140 217 l55 47 -30 24 c-16 13 -30 28 -30 34 0 6 8 4 18 -5 9 -8 29 -20 45 -26 l27 -11 -16 25 c-18 28 -9 32 20 10 32 -24 47 -19 36 11 -6 14 -10 35 -9 47 0 17 4 13 13 -13 11 -31 17 -35 47 -35z"/>
 <path d="M505 1841 c-55 -10 -113 -26 -130 -35 -16 -9 -37 -16 -46 -16 -24 0 -120 -73 -161 -123 -116 -140 -141 -422 -57 -655 31 -89 55 -259 51 -365 -2 -30 -6 -37 -19 -35 -13 2 -19 -11 -30 -67 -7 -38 -25 -121 -39 -184 -14 -63 -24 -136 -23 -163 2 -46 4 -48 32 -48 55 0 94 30 179 135 46 57 95 124 110 149 28 46 28 46 47 27 25 -25 111 -51 166 -51 40 0 42 -2 43 -30 0 -16 6 -47 13 -67 26 -80 44 -129 56 -153 7 -14 13 -28 13 -32 0 -3 12 -25 27 -47 26 -39 28 -41 43 -24 37 40 180 399 180 453 0 9 10 30 22 45 13 16 25 51 29 83 5 37 16 63 32 81 53 56 97 135 125 223 68 206 73 327 24 516 -42 159 -49 176 -107 240 -118 131 -346 187 -580 143z m-101 -905 c49 -20 76 -60 76 -113 0 -65 -24 -107 -75 -134 l-44 -23 -56 19 c-34 11 -66 30 -81 48 -48 58 -21 157 54 197 44 23 81 25 126 6z m511 -110 c44 -19 67 -56 67 -107 -1 -79 -58 -139 -140 -147 -88 -8 -142 42 -142 133 0 48 13 70 62 105 46 34 97 39 153 16z"/>
 <path d="M303 906 c-45 -20 -65 -56 -61 -107 3 -36 8 -47 37 -66 59 -40 128 -28 156 27 23 45 19 85 -12 120 -33 36 -76 45 -120 26z m55 -94 c3 -16 -2 -22 -17 -22 -26 0 -36 17 -20 36 16 19 33 13 37 -14z"/>
 <path d="M805 801 c-11 -5 -32 -21 -47 -36 -34 -34 -36 -76 -8 -122 18 -30 24 -33 69 -33 62 0 93 14 114 50 32 53 18 108 -33 135 -32 16 -64 18 -95 6z m53 -98 c-5 -26 -38 -29 -38 -4 0 15 6 21 21 21 14 0 19 -5 17 -17z"/>
 <path d="M130 640 c0 -7 3 -10 7 -7 3 4 3 10 0 14 -4 3 -7 0 -7 -7z"/>
 </g>
<g id="layer111" fill="#6b798b" stroke="none">
 <path d="M0 975 l0 -975 640 0 640 0 0 975 0 975 -640 0 -640 0 0 -975z m344 891 c7 -21 -6 -21 186 9 116 19 205 15 322 -11 l72 -17 28 34 c32 38 39 25 7 -15 -11 -14 -17 -30 -14 -36 8 -13 35 -13 35 0 0 6 6 10 14 10 7 0 30 11 50 25 20 13 36 20 36 16 0 -11 -58 -61 -71 -61 -5 0 -9 -5 -9 -11 0 -8 19 -10 63 -5 43 5 57 4 47 -4 -8 -5 -23 -10 -32 -10 -35 0 -28 -22 20 -68 65 -61 82 -99 123 -262 47 -190 43 -286 -18 -490 -33 -110 -64 -172 -118 -229 -35 -38 -44 -56 -50 -98 -4 -29 -15 -63 -24 -75 -10 -13 -23 -50 -30 -83 -19 -87 -68 -211 -162 -412 -26 -54 -45 -60 -82 -26 -50 48 -99 159 -121 273 l-12 65 -60 7 c-32 4 -76 14 -98 23 -42 18 -41 19 -76 -35 -56 -85 -171 -217 -208 -238 -46 -26 -94 -29 -112 -7 -29 35 -24 143 14 322 20 95 45 191 55 215 28 65 12 174 -56 388 -25 77 -28 99 -28 235 0 137 3 158 28 237 31 96 74 159 152 223 l46 38 -30 24 c-17 14 -31 29 -31 35 0 6 8 4 18 -5 9 -8 30 -21 47 -27 28 -11 28 -10 12 8 -24 26 -23 51 1 30 9 -9 27 -19 40 -22 20 -7 21 -5 12 19 -5 14 -10 36 -9 48 0 21 1 21 9 2 5 -11 11 -28 14 -39z"/>
 <path d="M505 1841 c-55 -10 -113 -26 -130 -35 -16 -9 -37 -16 -46 -16 -24 0 -120 -73 -161 -123 -116 -140 -141 -422 -57 -655 31 -89 55 -259 51 -365 -2 -29 -6 -37 -19 -35 -17 3 -18 -3 -85 -333 -6 -30 -8 -72 -4 -92 6 -32 11 -37 34 -37 15 1 42 9 59 18 35 19 162 169 221 260 20 32 37 51 40 43 7 -21 91 -52 158 -58 59 -5 61 -7 62 -34 0 -16 6 -46 13 -66 26 -80 44 -129 56 -153 7 -14 13 -28 13 -33 0 -4 13 -26 30 -48 l29 -41 21 34 c39 64 139 314 159 395 11 46 29 95 40 109 12 15 21 41 21 61 0 33 22 88 38 95 24 10 84 110 112 185 70 193 78 344 29 542 -17 69 -40 143 -51 164 -91 179 -355 270 -633 218z m-101 -905 c100 -42 105 -196 7 -245 -50 -26 -71 -26 -126 -1 -86 39 -111 117 -61 191 42 62 112 83 180 55z m524 -116 c45 -28 66 -79 52 -129 -20 -76 -76 -121 -150 -121 -82 0 -130 49 -130 133 0 106 134 174 228 117z"/>
 <path d="M300 903 c-43 -22 -61 -56 -58 -108 7 -98 164 -117 197 -23 17 49 13 75 -16 107 -36 38 -78 46 -123 24z m58 -91 c3 -16 -2 -22 -17 -22 -24 0 -35 15 -27 36 9 23 40 13 44 -14z"/>
 <path d="M788 788 c-59 -34 -73 -88 -38 -145 18 -31 23 -33 76 -33 50 0 59 3 90 34 52 52 45 119 -16 151 -39 20 -68 19 -112 -7z m72 -88 c0 -13 -7 -20 -20 -20 -13 0 -20 7 -20 20 0 13 7 20 20 20 13 0 20 -7 20 -20z"/>
 <path d="M130 640 c0 -7 3 -10 7 -7 3 4 3 10 0 14 -4 3 -7 0 -7 -7z"/>
 </g>
<g id="layer112" fill="#81817c" stroke="none">
 <path d="M0 975 l0 -975 640 0 640 0 0 975 0 975 -640 0 -640 0 0 -975z m344 891 c7 -21 -6 -21 186 9 116 19 205 15 322 -11 l72 -17 28 34 c32 38 39 25 7 -15 -11 -14 -17 -30 -14 -36 8 -13 35 -13 35 0 0 6 6 10 14 10 7 0 30 11 50 25 20 13 36 20 36 16 0 -11 -58 -61 -71 -61 -5 0 -9 -5 -9 -11 0 -8 19 -10 63 -5 43 5 57 4 47 -4 -8 -5 -23 -10 -32 -10 -35 0 -28 -22 20 -68 65 -61 82 -99 123 -262 47 -190 43 -286 -18 -490 -33 -110 -64 -172 -118 -229 -35 -38 -44 -56 -50 -98 -4 -29 -15 -63 -24 -75 -10 -13 -23 -50 -30 -83 -19 -87 -68 -211 -162 -412 -26 -54 -45 -60 -82 -26 -50 48 -99 159 -121 273 l-12 65 -60 7 c-32 4 -76 14 -98 23 -42 18 -41 19 -76 -35 -56 -85 -171 -217 -208 -238 -46 -26 -94 -29 -112 -7 -29 35 -24 143 14 322 20 95 45 191 55 215 28 65 12 174 -56 388 -25 77 -28 99 -28 235 0 137 3 158 28 237 31 96 74 159 152 223 l46 38 -30 24 c-17 14 -31 29 -31 35 0 6 8 4 18 -5 9 -8 30 -21 47 -27 28 -11 28 -10 12 8 -24 26 -23 51 1 30 9 -9 27 -19 40 -22 20 -7 21 -5 12 19 -5 14 -10 36 -9 48 0 21 1 21 9 2 5 -11 11 -28 14 -39z"/>
 <path d="M520 1840 c-136 -25 -198 -48 -269 -99 -79 -58 -122 -119 -156 -226 -26 -80 -29 -104 -30 -220 0 -124 2 -137 42 -274 61 -204 81 -424 39 -408 -18 7 -28 -33 -88 -334 -6 -30 -8 -72 -4 -92 6 -32 11 -37 34 -37 15 1 42 9 59 18 35 19 162 169 221 260 20 32 37 51 40 43 7 -20 91 -52 157 -58 l61 -6 13 -68 c14 -79 64 -207 103 -263 l27 -39 20 34 c40 64 140 314 160 396 11 46 29 95 40 109 12 15 21 41 21 61 0 33 22 88 38 95 24 10 84 110 112 185 70 193 78 344 29 542 -17 69 -40 143 -51 164 -51 102 -164 179 -307 211 -118 26 -195 27 -311 6z m-116 -904 c70 -29 96 -109 62 -191 -15 -35 -76 -75 -116 -75 -34 0 -107 37 -129 66 -46 58 -16 156 59 195 41 23 79 24 124 5z m524 -116 c45 -28 66 -79 52 -129 -20 -76 -76 -121 -150 -121 -82 0 -130 49 -130 133 0 106 134 174 228 117z"/>
 <path d="M300 903 c-43 -22 -61 -56 -58 -108 7 -98 164 -117 197 -23 17 49 13 75 -16 107 -36 38 -78 46 -123 24z m58 -91 c3 -16 -2 -22 -17 -22 -24 0 -35 15 -27 36 9 23 40 13 44 -14z"/>
 <path d="M788 788 c-59 -34 -73 -88 -38 -145 18 -31 23 -33 76 -33 50 0 59 3 90 34 52 52 45 119 -16 151 -39 20 -68 19 -112 -7z m72 -88 c0 -13 -7 -20 -20 -20 -13 0 -20 7 -20 20 0 13 7 20 20 20 13 0 20 -7 20 -20z"/>
 </g>
<g id="layer113" fill="#90908f" stroke="none">
 <path d="M0 975 l0 -975 640 0 640 0 0 975 0 975 -640 0 -640 0 0 -975z m389 878 c20 4 79 13 131 21 127 21 196 20 310 -5 l95 -20 28 33 c31 36 38 24 7 -14 -29 -38 -8 -50 43 -26 23 11 50 27 60 36 10 9 17 11 17 4 0 -6 -16 -24 -35 -39 -19 -15 -35 -32 -35 -36 0 -5 26 -6 58 -3 l57 6 -39 -18 -40 -18 22 -22 c12 -12 26 -22 31 -22 10 0 61 -73 79 -115 7 -16 27 -86 45 -155 42 -167 41 -258 -1 -428 -37 -144 -80 -237 -138 -295 -33 -34 -42 -52 -47 -92 -4 -27 -16 -61 -26 -75 -10 -14 -22 -46 -26 -70 -9 -54 -57 -193 -92 -270 -109 -235 -108 -234 -168 -167 -45 50 -92 159 -108 254 l-11 62 -50 7 c-28 3 -73 15 -100 26 -27 10 -51 17 -53 14 -2 -2 -16 -22 -31 -44 -62 -93 -177 -224 -213 -243 -41 -21 -104 -25 -114 -8 -4 6 -9 45 -12 87 -3 62 3 110 30 244 20 91 44 186 55 210 18 42 19 51 6 141 -7 53 -20 113 -29 134 -63 149 -83 389 -45 539 32 121 62 175 141 248 l70 65 -30 16 c-17 8 -31 22 -31 30 0 10 12 7 48 -13 40 -22 44 -23 30 -6 -10 12 -18 27 -18 34 0 10 4 10 18 -2 9 -9 28 -19 40 -23 21 -6 23 -5 13 13 -6 12 -11 33 -10 49 1 27 2 26 17 -11 15 -36 17 -38 51 -33z"/>
 <path d="M520 1840 c-136 -25 -198 -48 -269 -99 -79 -58 -122 -119 -156 -226 -26 -80 -29 -104 -30 -220 0 -124 2 -137 42 -274 61 -204 81 -424 39 -408 -18 7 -28 -33 -88 -334 -6 -30 -8 -72 -4 -92 6 -32 11 -37 34 -37 15 1 42 9 59 18 36 19 179 189 221 262 34 59 32 57 46 38 17 -23 131 -60 174 -56 l35 3 17 -80 c28 -134 109 -299 137 -282 12 8 122 255 148 332 9 27 22 75 30 107 7 32 23 69 34 84 12 15 21 41 21 61 0 42 12 66 58 117 38 43 95 158 112 227 33 131 39 172 40 259 0 101 -38 283 -79 374 -79 179 -347 276 -621 226z m-111 -908 c50 -25 74 -63 74 -115 -2 -77 -43 -130 -113 -144 -41 -8 -113 21 -145 58 -67 81 9 219 120 219 17 0 45 -8 64 -18z m501 -104 c105 -53 99 -187 -11 -243 -59 -31 -154 -11 -180 37 -47 87 -18 166 76 209 52 24 62 24 115 -3z"/>
 <path d="M277 886 c-47 -44 -50 -116 -6 -149 15 -10 46 -21 70 -24 39 -4 47 -1 72 25 18 19 31 45 34 70 5 36 2 45 -25 72 -40 40 -105 43 -145 6z m81 -74 c3 -16 -2 -22 -17 -22 -24 0 -35 15 -27 36 9 23 40 13 44 -14z"/>
 <path d="M793 790 c-46 -28 -67 -63 -59 -103 11 -61 31 -77 91 -77 68 0 110 31 120 89 8 48 -5 75 -45 96 -39 20 -69 19 -107 -5z m67 -90 c0 -13 -7 -20 -19 -20 -22 0 -35 15 -26 30 12 19 45 11 45 -10z"/>
 </g>
<g id="layer114" fill="#9ca3a8" stroke="none">
 <path d="M0 975 l0 -975 640 0 640 0 0 975 0 975 -640 0 -640 0 0 -975z m359 881 c5 -3 62 3 126 14 64 11 145 20 180 20 56 0 186 -20 237 -36 13 -4 28 4 48 26 31 34 41 21 14 -18 -33 -48 13 -42 89 11 16 10 30 18 32 16 6 -7 -19 -35 -47 -53 -40 -26 -35 -40 11 -32 22 3 46 9 55 12 9 3 16 2 16 -4 0 -6 -17 -16 -37 -23 l-37 -12 35 -30 c84 -76 112 -139 160 -371 23 -108 23 -110 6 -225 -17 -116 -21 -133 -62 -247 -26 -71 -88 -169 -120 -190 -17 -11 -24 -28 -29 -69 -3 -30 -15 -69 -25 -87 -10 -18 -24 -58 -31 -88 -15 -64 -49 -156 -94 -255 -18 -38 -41 -92 -52 -119 -21 -52 -51 -80 -78 -70 -9 4 -29 25 -45 48 -41 60 -78 158 -105 277 -5 23 -13 28 -53 34 -27 4 -70 16 -98 26 -27 10 -51 19 -52 19 0 0 -10 -16 -22 -35 -11 -19 -57 -80 -102 -135 -86 -107 -132 -140 -194 -140 -44 0 -55 23 -55 118 0 77 59 369 87 434 18 40 18 50 6 138 -7 52 -22 120 -33 150 -44 125 -60 211 -60 330 0 224 58 368 190 473 l35 28 -27 20 c-43 32 -37 53 8 27 l35 -21 -7 29 c-7 28 -6 28 12 13 10 -9 30 -20 42 -24 21 -6 23 -5 13 13 -6 12 -11 33 -10 49 l1 28 14 -32 c7 -17 18 -34 23 -37z"/>
 <path d="M520 1840 c-136 -25 -198 -48 -269 -99 -79 -58 -122 -119 -156 -226 -26 -80 -29 -104 -30 -220 0 -124 2 -137 42 -274 60 -204 81 -424 39 -408 -14 5 -28 -30 -41 -103 -3 -19 -17 -88 -32 -153 -32 -146 -27 -207 15 -207 15 0 41 9 58 19 39 24 169 178 214 254 32 53 60 74 60 44 0 -19 94 -50 153 -51 l50 -1 17 -80 c29 -138 113 -306 140 -279 30 30 161 364 174 445 4 21 16 49 28 64 12 16 25 51 29 81 6 43 16 64 52 106 54 64 76 108 110 213 56 180 61 299 17 482 -16 69 -38 144 -49 167 -32 71 -94 131 -176 170 -145 69 -282 86 -445 56z m-89 -917 c78 -66 71 -179 -14 -232 -42 -26 -79 -26 -133 -2 -56 25 -84 64 -84 115 0 117 144 192 231 119z m475 -92 c108 -49 110 -166 4 -238 -61 -42 -155 -28 -189 28 -48 78 -32 143 47 196 54 37 81 40 138 14z"/>
 <path d="M284 892 c-47 -38 -59 -107 -24 -142 70 -70 174 -38 187 57 5 37 2 45 -25 73 -25 24 -39 30 -74 30 -26 0 -52 -7 -64 -18z m74 -80 c3 -16 -2 -22 -17 -22 -24 0 -35 15 -27 36 9 23 40 13 44 -14z"/>
 <path d="M793 790 c-46 -28 -67 -63 -59 -103 11 -60 31 -77 90 -77 65 0 100 24 117 81 16 51 1 85 -46 105 -46 19 -64 18 -102 -6z m67 -91 c0 -12 -7 -19 -19 -19 -26 0 -36 17 -21 35 15 18 40 8 40 -16z"/>
 </g>
<g id="layer115" fill="#b2b3b1" stroke="none">
 <path d="M0 975 l0 -975 640 0 640 0 0 975 0 975 -640 0 -640 0 0 -975z m340 921 c0 -38 24 -51 68 -38 117 35 353 39 455 7 43 -13 51 -13 72 1 12 8 26 25 30 37 6 19 8 20 12 4 3 -10 -3 -29 -12 -43 -9 -13 -13 -29 -10 -33 6 -11 76 21 95 43 14 17 40 22 40 7 0 -11 -58 -61 -71 -61 -5 0 -9 -5 -9 -11 0 -11 44 -7 94 8 12 3 17 1 14 -8 -2 -7 -19 -17 -38 -22 l-33 -8 50 -47 c67 -62 93 -117 123 -252 7 -30 19 -82 27 -115 28 -107 -1 -315 -65 -472 -31 -75 -92 -167 -122 -183 -12 -6 -19 -26 -23 -63 -3 -29 -15 -69 -26 -88 -12 -19 -21 -43 -21 -54 -1 -55 -157 -436 -193 -473 -35 -34 -87 20 -141 145 -18 43 -36 100 -40 127 -11 69 -15 76 -46 76 -23 0 -102 23 -151 44 -12 5 -23 -4 -43 -36 -55 -92 -180 -231 -228 -255 -56 -28 -95 -23 -109 14 -12 31 -11 155 2 213 5 25 16 83 25 130 8 47 24 110 36 140 11 30 23 70 25 89 7 42 -11 156 -37 236 -54 169 -62 221 -57 369 4 121 8 152 32 221 33 94 69 149 138 206 l50 42 -27 20 c-14 10 -26 26 -26 34 0 14 3 13 25 -1 32 -21 35 -20 35 6 0 19 1 20 18 6 9 -9 28 -19 40 -23 21 -6 23 -5 13 13 -14 26 -14 72 -1 72 6 0 10 -11 10 -24z"/>
 <path d="M520 1840 c-136 -25 -198 -48 -269 -99 -79 -58 -122 -119 -156 -226 -26 -80 -29 -104 -30 -220 0 -124 2 -137 42 -274 61 -204 81 -424 39 -408 -16 6 -24 -22 -57 -183 -29 -137 -37 -208 -31 -248 4 -27 9 -32 31 -32 36 0 82 30 122 80 19 23 53 65 77 93 24 29 58 76 75 105 30 49 57 68 57 39 0 -19 89 -48 156 -50 52 -2 59 -4 56 -21 -13 -76 115 -373 147 -341 29 29 148 330 170 427 7 31 21 68 31 81 11 13 23 49 28 80 7 44 18 65 54 108 55 65 77 108 111 214 59 187 61 303 12 499 -50 197 -92 258 -224 321 -141 68 -279 85 -441 55z m-81 -926 c52 -46 63 -102 33 -160 -28 -55 -55 -76 -105 -81 -85 -10 -167 55 -167 131 0 82 66 146 152 146 41 0 54 -5 87 -36z m469 -79 c45 -23 82 -71 82 -108 0 -45 -38 -116 -74 -138 -21 -13 -50 -19 -88 -19 -49 0 -62 4 -88 27 -17 17 -34 46 -41 73 -16 64 4 110 67 150 53 34 95 38 142 15z"/>
 <path d="M281 884 c-32 -27 -48 -77 -36 -113 7 -24 73 -61 107 -61 55 0 103 66 92 125 -13 73 -103 100 -163 49z m79 -68 c0 -28 -24 -41 -40 -21 -16 20 -5 45 20 45 14 0 20 -7 20 -24z"/>
 <path d="M782 779 c-48 -35 -59 -63 -42 -114 14 -43 35 -55 93 -55 56 0 92 27 108 81 16 51 1 85 -46 105 -49 20 -66 18 -113 -17z m78 -80 c0 -12 -7 -19 -19 -19 -26 0 -36 17 -21 35 15 18 40 8 40 -16z"/>
 </g>
<g id="layer116" fill="#aac3e0" stroke="none">
 <path d="M0 975 l0 -975 640 0 640 0 0 975 0 975 -640 0 -640 0 0 -975z m340 920 c0 -32 37 -48 77 -35 62 21 251 38 320 30 71 -9 136 -23 164 -34 12 -5 26 4 48 31 25 30 31 34 31 18 0 -12 -7 -31 -16 -43 -8 -12 -13 -26 -9 -31 7 -12 62 15 97 47 29 27 50 23 32 -6 -6 -9 -25 -27 -42 -38 -40 -27 -33 -34 24 -22 25 6 48 7 52 3 10 -10 -28 -35 -52 -35 -16 0 -9 -10 31 -47 75 -71 98 -125 148 -358 42 -193 -37 -513 -159 -643 -37 -39 -46 -56 -46 -84 0 -19 -10 -55 -23 -79 -13 -24 -26 -61 -30 -82 -11 -70 -151 -409 -187 -452 -20 -24 -47 -17 -78 21 -33 40 -99 189 -108 244 -13 80 -10 77 -70 84 -30 3 -74 16 -96 27 -38 20 -40 20 -54 2 -7 -10 -14 -21 -14 -25 0 -12 -158 -204 -189 -231 -36 -30 -102 -53 -125 -44 -28 11 -38 58 -33 157 5 109 47 318 79 392 20 48 21 55 9 142 -7 50 -24 127 -38 171 -48 151 -53 184 -54 324 0 124 2 144 29 228 33 102 78 172 149 230 l44 36 -30 24 c-17 14 -31 31 -31 39 0 20 14 17 35 -6 23 -26 35 -25 35 1 0 19 1 19 22 5 35 -25 44 -20 40 24 -3 25 0 40 7 40 6 0 11 -11 11 -25z"/>
 <path d="M520 1840 c-136 -25 -198 -48 -269 -99 -79 -58 -122 -119 -156 -226 -26 -80 -29 -104 -30 -220 0 -124 2 -137 42 -274 61 -204 81 -424 39 -408 -15 6 -23 -18 -57 -178 -12 -55 -24 -142 -26 -192 -5 -104 -4 -106 66 -82 37 13 184 182 233 266 26 47 58 70 58 43 0 -19 63 -41 138 -48 60 -6 76 -11 74 -22 -15 -65 105 -359 142 -347 22 7 153 333 176 437 7 30 21 64 32 76 11 12 21 43 25 74 4 37 14 62 33 84 89 102 137 216 165 388 23 145 18 199 -38 418 -32 124 -82 188 -192 246 -140 75 -285 95 -455 64z m-74 -934 c49 -48 57 -87 30 -149 -43 -101 -175 -116 -250 -27 -72 86 6 220 128 220 44 0 53 -4 92 -44z m463 -71 c46 -23 81 -72 81 -111 0 -48 -34 -111 -73 -134 -45 -28 -135 -27 -171 1 -83 65 -73 170 22 230 51 32 97 37 141 14z"/>
 <path d="M280 883 c-22 -20 -33 -40 -37 -69 -5 -36 -2 -43 25 -66 65 -55 139 -43 168 28 18 44 10 77 -28 109 -40 34 -88 33 -128 -2z m87 -59 c3 -8 -2 -23 -11 -32 -15 -15 -17 -15 -32 0 -21 21 -11 48 16 48 11 0 23 -7 27 -16z"/>
 <path d="M815 801 c-11 -5 -35 -23 -54 -40 -28 -26 -32 -35 -26 -63 12 -58 37 -83 86 -86 60 -3 104 25 120 76 14 48 3 74 -44 102 -34 21 -51 23 -82 11z m43 -95 c6 -29 -15 -43 -35 -24 -14 14 -14 20 -3 33 16 19 34 15 38 -9z"/>
 </g>
<g id="layer117" fill="#c9d9ea" stroke="none">
 <path d="M0 975 l0 -975 640 0 640 0 0 975 0 975 -640 0 -640 0 0 -975z m340 920 c0 -32 37 -48 77 -35 62 21 251 38 320 30 71 -9 136 -23 164 -34 12 -5 26 4 48 31 25 30 31 34 31 18 0 -12 -7 -31 -16 -43 -8 -12 -13 -26 -9 -31 7 -12 62 15 97 47 29 27 50 23 32 -6 -6 -9 -25 -27 -42 -38 -40 -27 -33 -34 24 -22 25 6 48 7 52 3 10 -10 -28 -35 -52 -35 -16 0 -9 -10 31 -47 75 -71 98 -125 148 -358 42 -193 -37 -513 -159 -643 -37 -39 -46 -56 -46 -84 0 -19 -10 -55 -23 -79 -13 -24 -26 -61 -30 -82 -11 -70 -151 -409 -187 -452 -20 -24 -47 -17 -78 21 -33 40 -99 189 -108 244 -13 80 -10 77 -70 84 -30 3 -74 16 -96 27 -38 20 -40 20 -54 2 -7 -10 -14 -21 -14 -25 0 -12 -158 -204 -189 -231 -36 -30 -102 -53 -125 -44 -28 11 -38 58 -33 157 5 109 47 318 79 392 20 48 21 55 9 142 -7 50 -24 127 -38 171 -48 151 -53 184 -54 324 0 124 2 144 29 228 33 102 78 172 149 230 l44 36 -30 24 c-17 14 -31 31 -31 39 0 20 14 17 35 -6 23 -26 35 -25 35 1 0 19 1 19 22 5 35 -25 44 -20 40 24 -3 25 0 40 7 40 6 0 11 -11 11 -25z"/>
 <path d="M717 1823 c-86 -13 -244 -64 -294 -94 -79 -49 -162 -166 -204 -288 -33 -95 -26 -354 13 -479 9 -30 13 -33 37 -27 14 4 50 9 79 12 52 5 54 4 97 -40 50 -49 58 -88 31 -150 -24 -57 -61 -82 -119 -81 -29 1 -64 4 -79 9 -25 7 -27 4 -38 -36 -7 -24 -16 -49 -21 -55 -5 -6 -30 -60 -54 -120 -25 -60 -59 -128 -75 -151 -26 -36 -30 -50 -30 -107 0 -73 5 -77 69 -55 37 13 184 182 233 266 26 47 58 70 58 43 0 -19 64 -42 136 -47 41 -3 77 -10 80 -14 3 -5 18 -9 33 -9 60 0 73 -47 52 -181 l-14 -85 28 -43 c16 -23 33 -40 39 -38 22 7 153 333 176 437 7 30 21 64 32 76 11 12 21 43 25 74 4 37 14 62 33 84 89 102 137 216 165 388 23 145 18 199 -38 418 -32 125 -82 188 -194 248 -99 52 -152 62 -256 45z m192 -988 c46 -23 81 -72 81 -111 0 -48 -34 -111 -73 -134 -45 -28 -135 -27 -171 1 -83 65 -73 170 22 230 51 32 97 37 141 14z"/>
 <path d="M815 801 c-11 -5 -35 -23 -54 -40 -28 -26 -32 -35 -26 -63 12 -58 37 -83 86 -86 60 -3 104 25 120 76 14 48 3 74 -44 102 -34 21 -51 23 -82 11z m43 -95 c6 -29 -15 -43 -35 -24 -14 14 -14 20 -3 33 16 19 34 15 38 -9z"/>
 <path d="M280 883 c-22 -20 -33 -40 -37 -69 -5 -36 -2 -43 25 -66 65 -55 139 -43 168 28 18 44 10 77 -28 109 -40 34 -88 33 -128 -2z m87 -59 c3 -8 -2 -23 -11 -32 -15 -15 -17 -15 -32 0 -21 21 -11 48 16 48 11 0 23 -7 27 -16z"/>
 </g>
<g id="layer118" fill="#dbe5ef" stroke="none">
 <path d="M0 975 l0 -975 640 0 640 0 0 975 0 975 -640 0 -640 0 0 -975z m340 920 c0 -32 37 -48 77 -35 62 21 251 38 320 30 71 -9 136 -23 164 -34 12 -5 26 4 48 31 25 30 31 34 31 18 0 -12 -7 -31 -16 -43 -8 -12 -13 -26 -9 -31 7 -12 62 15 97 47 29 27 50 23 32 -6 -6 -9 -25 -27 -42 -38 -40 -27 -33 -34 24 -22 25 6 48 7 52 3 10 -10 -28 -35 -52 -35 -16 0 -9 -10 31 -47 75 -71 98 -125 148 -358 42 -193 -37 -513 -159 -643 -37 -39 -46 -56 -46 -84 0 -19 -10 -55 -23 -79 -13 -24 -26 -61 -30 -82 -11 -70 -151 -409 -187 -452 -20 -24 -47 -17 -78 21 -33 40 -99 189 -108 244 -13 80 -10 77 -70 84 -30 3 -74 16 -96 27 -38 20 -40 20 -54 2 -7 -10 -14 -21 -14 -25 0 -12 -158 -204 -189 -231 -36 -30 -102 -53 -125 -44 -28 11 -38 58 -33 157 5 109 47 318 79 392 20 48 21 55 9 142 -7 50 -24 127 -38 171 -48 151 -53 184 -54 324 0 124 2 144 29 228 33 102 78 172 149 230 l44 36 -30 24 c-17 14 -31 31 -31 39 0 20 14 17 35 -6 23 -26 35 -25 35 1 0 19 1 19 22 5 35 -25 44 -20 40 24 -3 25 0 40 7 40 6 0 11 -11 11 -25z"/>
 <path d="M740 1816 c-93 -13 -267 -66 -315 -96 -55 -35 -133 -135 -172 -222 -34 -77 -37 -92 -41 -198 -5 -122 12 -283 34 -339 11 -26 18 -32 31 -25 10 4 42 10 71 12 51 4 54 3 97 -41 50 -49 58 -88 31 -150 -24 -57 -61 -82 -119 -81 -29 0 -62 4 -74 8 -18 7 -22 3 -28 -24 -4 -18 -26 -74 -50 -124 -23 -50 -51 -111 -61 -136 -11 -25 -34 -64 -51 -87 -29 -38 -33 -51 -33 -103 0 -67 6 -71 69 -49 37 13 184 182 233 267 26 46 58 69 58 42 0 -21 65 -41 166 -51 59 -5 115 -14 124 -19 36 -19 42 -68 21 -174 l-20 -98 26 -39 c14 -22 31 -38 37 -36 22 7 153 333 176 437 7 30 21 64 32 76 11 12 21 43 25 74 4 37 14 62 33 84 89 102 137 216 165 388 23 145 18 199 -38 418 -32 125 -82 188 -192 246 -96 50 -125 55 -235 40z m169 -981 c46 -23 81 -72 81 -111 0 -48 -34 -111 -73 -134 -45 -28 -135 -27 -171 1 -83 65 -73 170 22 230 51 32 97 37 141 14z"/>
 <path d="M815 801 c-11 -5 -35 -23 -54 -40 -28 -26 -32 -35 -26 -63 12 -58 37 -83 86 -86 60 -3 104 25 120 76 14 48 3 74 -44 102 -34 21 -51 23 -82 11z m43 -95 c6 -29 -15 -43 -35 -24 -14 14 -14 20 -3 33 16 19 34 15 38 -9z"/>
 <path d="M280 883 c-22 -20 -33 -40 -37 -69 -5 -36 -2 -43 25 -66 65 -55 139 -43 168 28 18 44 10 77 -28 109 -40 34 -88 33 -128 -2z m87 -59 c3 -8 -2 -23 -11 -32 -15 -15 -17 -15 -32 0 -21 21 -11 48 16 48 11 0 23 -7 27 -16z"/>
 </g>
<g id="layer119" fill="#fefefa" stroke="none">
 <path d="M0 975 l0 -975 640 0 640 0 0 975 0 975 -640 0 -640 0 0 -975z m338 921 c4 -33 39 -49 79 -36 15 5 78 16 140 24 113 14 186 11 297 -14 58 -13 79 -7 101 26 25 38 39 18 15 -23 -37 -62 -10 -62 73 1 39 29 60 28 41 -2 -6 -9 -25 -27 -42 -38 -40 -27 -33 -34 24 -22 25 6 48 7 52 3 10 -9 -28 -35 -51 -35 -19 0 -20 -1 -2 -20 10 -11 24 -20 30 -20 28 0 88 -112 114 -211 45 -175 54 -232 47 -319 -13 -185 -93 -406 -175 -486 -33 -31 -41 -46 -41 -75 0 -20 -11 -57 -25 -83 -14 -26 -25 -56 -25 -66 0 -29 -47 -165 -86 -248 -19 -40 -34 -75 -34 -78 0 -3 -16 -39 -36 -80 -29 -61 -40 -74 -59 -74 -31 0 -71 49 -106 130 -16 36 -33 72 -38 81 -5 9 -12 38 -16 65 -11 81 -11 81 -71 88 -31 3 -74 16 -96 27 -38 20 -40 20 -54 2 -7 -10 -14 -21 -14 -25 0 -10 -154 -200 -186 -230 -32 -29 -104 -54 -128 -45 -47 18 -50 153 -7 354 17 78 40 166 52 194 21 49 22 56 10 143 -7 50 -23 123 -36 161 -46 139 -55 194 -56 329 -2 122 1 138 32 240 33 108 34 110 110 186 l77 78 -29 21 c-16 12 -29 28 -29 36 0 21 14 19 35 -5 23 -26 35 -25 35 1 0 19 1 19 22 5 27 -19 49 -21 44 -3 -14 42 -15 78 -3 75 6 -3 13 -17 15 -32z"/>
 <path d="M765 1807 c-91 -9 -282 -65 -336 -99 -79 -49 -157 -166 -194 -291 -19 -64 -19 -221 -1 -343 20 -131 21 -133 101 -127 l65 6 45 -45 c37 -37 45 -52 45 -82 0 -47 -20 -95 -55 -126 -23 -22 -35 -25 -96 -24 -67 1 -70 0 -75 -25 -2 -14 -20 -55 -39 -91 -18 -36 -43 -91 -55 -123 -12 -32 -42 -88 -66 -124 -37 -55 -44 -73 -44 -114 0 -54 8 -59 69 -38 37 13 184 182 233 266 26 47 58 70 58 43 0 -24 67 -43 165 -47 137 -5 144 -8 161 -49 15 -36 12 -77 -17 -206 -10 -43 -8 -52 11 -83 12 -20 27 -34 33 -32 23 7 154 331 177 437 7 30 21 64 32 76 11 12 21 43 25 74 4 37 14 62 33 84 57 66 97 136 123 214 29 88 57 241 57 313 0 60 -51 296 -78 359 -25 57 -88 124 -151 159 -77 42 -120 49 -226 38z m144 -972 c46 -23 81 -72 81 -111 0 -48 -34 -111 -73 -134 -45 -28 -135 -27 -171 1 -83 65 -73 170 22 230 51 32 97 37 141 14z"/>
 <path d="M815 801 c-11 -5 -35 -23 -54 -40 -28 -26 -32 -35 -26 -63 12 -58 37 -83 86 -86 60 -3 104 25 120 76 14 48 3 74 -44 102 -34 21 -51 23 -82 11z m43 -95 c6 -29 -15 -43 -35 -24 -14 14 -14 20 -3 33 16 19 34 15 38 -9z"/>
 <path d="M280 883 c-22 -20 -33 -40 -37 -69 -5 -36 -2 -43 25 -66 65 -55 139 -43 168 28 18 44 10 77 -28 109 -40 34 -88 33 -128 -2z m87 -59 c3 -8 -2 -23 -11 -32 -15 -15 -17 -15 -32 0 -21 21 -11 48 16 48 11 0 23 -7 27 -16z"/>
 </g>

</svg>